arquitectura_proyecto_alu.sim/sim_1/behav/xsim/simulate.log
Time resolution is 1 ps
m1: 0000000000, m2: 0000000000
sign: 0, exp: 10000, mantisa: 0000000000, is_resta: 0
sign: 0, exp: 01111, mantisa: 0000000000, is_resta: 1
m1: 10000000000, m2: 10000000000, result: 0100000000000000000000
m1: 0000000000, m2: 0000000000
sign: 0, exp: 01111, mantisa: 0000000000, is_resta: 0
         ADD 1+1  op=00  a=0011110000000000  b=0011110000000000  => y=0100000000000000 (hex=4000)        OK
m1: 1000000000, m2: 0000000000
m1: 1000000000, m2: 0000000000
m1: 11000000000, m2: 10000000000, result: 0110000000000000000000
sign: 0, exp: 10001, mantisa: 0100000000, is_resta: 0
sign: 0, exp: 10001, mantisa: 1000000000, is_resta: 0
sign: 0, exp: 01111, mantisa: 0000000000, is_resta: 1
         SUB 3-2  op=01  a=0100001000000000  b=0100000000000000  => y=0011110000000000 (hex=3c00)        OK
m1: 0000000001, m2: 0000000001
m1: 0000000001, m2: 0000000001
m1: 10000000001, m2: 10000000001, result: 0100000000100000000001
sign: 0, exp: 10000, mantisa: 0000000001, is_resta: 0
sign: 0, exp: 01111, mantisa: 0000000010, is_resta: 0
sign: 0, exp: 01111, mantisa: 0000000000, is_resta: 1
 (1+ulp)*(1+ulp)  op=10  a=0011110000000001  b=0011110000000001  => y=0011110000000010 (hex=3c02)        OK
m1: 1000000000, m2: 0000000001
m1: 1000000000, m2: 0000000001
m1: 11000000000, m2: 10000000001, result: 0110000000011000000000
sign: 0, exp: 10000, mantisa: 0100000000, is_resta: 0
sign: 0, exp: 01101, mantisa: 0000000100, is_resta: 1
sign: 0, exp: 01111, mantisa: 1000000010, is_resta: 0
UL 1.5 * (1+ulp)  op=10  a=0011111000000000  b=0011110000000001  => y=0011111000000010 (hex=3e02)        OK
m1: 0000000001, m2: 0000000001
m1: 0000000001, m2: 0000000001
m1: 10000000001, m2: 10000000001, result: 0100000000100000000001
sign: 0, exp: 10000, mantisa: 0000000001, is_resta: 0
sign: 0, exp: 01111, mantisa: 0000000000, is_resta: 1
sign: 0, exp: 01111, mantisa: 0000000010, is_resta: 0
 (1+ulp)*(1+ulp)  op=10  a=0011110000000001  b=0011110000000001  => y=0011110000000010 (hex=3c02)        OK
m1: 1000000000, m2: 0000000001
m1: 1000000000, m2: 0000000001
m1: 11000000000, m2: 10000000001, result: 0110000000011000000000
sign: 0, exp: 10000, mantisa: 0100000000, is_resta: 0
sign: 0, exp: 01101, mantisa: 0000000100, is_resta: 1
sign: 0, exp: 01111, mantisa: 1000000010, is_resta: 0
UL 1.5 * (1+ulp)  op=10  a=0011111000000000  b=0011110000000001  => y=0011111000000010 (hex=3e02)        OK
m1: 0000000010, m2: 0000000001
m1: 0000000010, m2: 0000000001
m1: 10000000010, m2: 10000000001, result: 0100000000110000000010
sign: 0, exp: 10000, mantisa: 0000000001, is_resta: 0
sign: 0, exp: 00101, mantisa: 0000000000, is_resta: 1
sign: 0, exp: 01111, mantisa: 0000000011, is_resta: 0
(1+2ulp)*(1+ulp)  op=10  a=0011110000000010  b=0011110000000001  => y=0011110000000011 (hex=3c03)        OK
m1: 0100000000, m2: 0000000001
m1: 0100000000, m2: 0000000001
m1: 10100000000, m2: 10000000001, result: 0101000000010100000000
sign: 0, exp: 10000, mantisa: 0010000000, is_resta: 0
sign: 0, exp: 01100, mantisa: 0000001000, is_resta: 1
sign: 0, exp: 01111, mantisa: 0100000001, is_resta: 0
L 1.25 * (1+ulp)  op=10  a=0011110100000000  b=0011110000000001  => y=0011110100000001 (hex=3d01)        OK
m1: 0111111111, m2: 0111111111
m1: 0111111111, m2: 0111111111
m1: 10111111111, m2: 10111111111, result: 1000111111010000000001
sign: 0, exp: 10000, mantisa: 0111111111, is_resta: 0
sign: 0, exp: 01111, mantisa: 0000000000, is_resta: 1
sign: 0, exp: 10000, mantisa: 0001111110, is_resta: 0
5-ulp)*(1.5-ulp)  op=10  a=0011110111111111  b=0011110111111111  => y=0100000001111110 (hex=407e)  MISMATCH
m1: 1100000000, m2: 0000000001
m1: 1100000000, m2: 0000000001
m1: 11100000000, m2: 10000000001, result: 0111000000011100000000
sign: 0, exp: 10000, mantisa: 0110000000, is_resta: 0
sign: 0, exp: 01110, mantisa: 1000000010, is_resta: 1
sign: 0, exp: 01111, mantisa: 1100000010, is_resta: 0
L 1.75 * (1+ulp)  op=10  a=0011111100000000  b=0011110000000001  => y=0011111100000010 (hex=3f02)        OK
m1: 0000000011, m2: 0000000011
m1: 0000000011, m2: 0000000011
m1: 10000000011, m2: 10000000011, result: 0100000001100000001001
sign: 0, exp: 10000, mantisa: 0000000011, is_resta: 0
sign: 0, exp: 01111, mantisa: 0000000000, is_resta: 1
sign: 0, exp: 01111, mantisa: 0000000110, is_resta: 0
1+3ulp)*(1+3ulp)  op=10  a=0011110000000011  b=0011110000000011  => y=0011110000000110 (hex=3c06)        OK
m1: 0010000000, m2: 0000000001
m1: 0010000000, m2: 0000000001
m1: 10010000000, m2: 10000000001, result: 0100100000010010000000
sign: 0, exp: 10000, mantisa: 0001000000, is_resta: 0
sign: 0, exp: 01011, mantisa: 0000010000, is_resta: 1
sign: 0, exp: 01111, mantisa: 0010000001, is_resta: 0
 1.125 * (1+ulp)  op=10  a=0011110010000000  b=0011110000000001  => y=0011110010000001 (hex=3c81)        OK
m1: 0000000001, m2: 0000000000
m1: 1000000000, m2: 0000000000
m1: 10000000001, m2: 10000000000, result: 0100000000010000000000
sign: 1, exp: 01111, mantisa: 0000000000, is_resta: 1
sign: 0, exp: 10000, mantisa: 1000000000, is_resta: 0
sign: 0, exp: 10000, mantisa: 0000000001, is_resta: 0
UL (1+ulp) * 2.0  op=10  a=0011110000000001  b=0100000000000000  => y=0100000000000001 (hex=4001)        OK
m1: 1000000000, m2: 1000000000
m1: 1000000000, m2: 1000000000
m1: 11000000000, m2: 11000000000, result: 1001000000000000000000
sign: 0, exp: 01111, mantisa: 0000000000, is_resta: 1
sign: 0, exp: 10000, mantisa: 0000000000, is_resta: 0
sign: 0, exp: 10000, mantisa: 0010000000, is_resta: 0
5 * 1.5 (exacto)  op=10  a=0011111000000000  b=0011111000000000  => y=0100000010000000 (hex=4080)        OK
m1: 0000000001, m2: 1000000000
m1: 0000000001, m2: 1000000000
m1: 10000000001, m2: 11000000000, result: 0110000000011000000000
sign: 1, exp: 01101, mantisa: 1111111100, is_resta: 1
sign: 0, exp: 10000, mantisa: 0100000000, is_resta: 0
sign: 0, exp: 01111, mantisa: 1000000010, is_resta: 0
UL (1+ulp) * 1.5  op=10  a=0011110000000001  b=0011111000000000  => y=0011111000000010 (hex=3e02)        OK
m1: 1111111111, m2: 0000000010
m1: 1111111111, m2: 0000000010
m1: 11111111111, m2: 10000000010, result: 1000000000101111111110
sign: 0, exp: 01110, mantisa: 0000000110, is_resta: 1
sign: 0, exp: 10000, mantisa: 0000000000, is_resta: 0
sign: 0, exp: 10000, mantisa: 0000000001, is_resta: 0
-ulp) * (1+2ulp)  op=10  a=0011111111111111  b=0011110000000010  => y=0100000000000001 (hex=4001)        OK
m1: 0010000000, m2: 1000000000
m1: 0010000000, m2: 1000000000
m1: 10010000000, m2: 11000000000, result: 0110110000000000000000
sign: 1, exp: 01101, mantisa: 1000000000, is_resta: 1
sign: 0, exp: 10000, mantisa: 0101000000, is_resta: 0
sign: 0, exp: 01111, mantisa: 1011000000, is_resta: 0
 1.5 (tie LSB=0)  op=10  a=0011110010000000  b=0011111000000000  => y=0011111011000000 (hex=3ec0)        OK
m1: 0110000000, m2: 1000000000
m1: 0110000000, m2: 1000000000
m1: 10110000000, m2: 11000000000, result: 1000010000000000000000
sign: 0, exp: 10000, mantisa: 0111000000, is_resta: 0
sign: 1, exp: 01100, mantisa: 0000000000, is_resta: 1
sign: 0, exp: 10000, mantisa: 0000100000, is_resta: 0
 1.5 (tie LSB=1)  op=10  a=0011110110000000  b=0011111000000000  => y=0100000000100000 (hex=4020)  MISMATCH
m1: 0001100110, m2: 0011001101
m1: 0001100110, m2: 0011001101
m1: 10001100110, m2: 10011001101, result: 0101010001110110101110
sign: 0, exp: 10000, mantisa: 0010011001, is_resta: 0
sign: 1, exp: 01011, mantisa: 1001110000, is_resta: 1
sign: 0, exp: 01111, mantisa: 0101000111, is_resta: 0
.2 (g=1,r=1,s=1)  op=10  a=0011110001100110  b=0011110011001101  => y=0011110101000111 (hex=3d47)  MISMATCH
m1: 0001100110, m2: 1011001101
m1: 0001100110, m2: 1011001101
m1: 10001100110, m2: 11011001101, result: 0111011110100110101110
sign: 0, exp: 10000, mantisa: 0110011001, is_resta: 0
sign: 1, exp: 01110, mantisa: 0011001110, is_resta: 1
sign: 0, exp: 01111, mantisa: 1101111010, is_resta: 0
.7 (g=1,r=0,s=1)  op=10  a=0011110001100110  b=0011111011001101  => y=0011111101111010 (hex=3f7a)  MISMATCH
m1: 0100110011, m2: 0110011010
m1: 0100110011, m2: 0110011010
m1: 10100110011, m2: 10110011010, result: 0111010001111110101110
sign: 0, exp: 10000, mantisa: 0101100110, is_resta: 0
sign: 1, exp: 01011, mantisa: 1001110000, is_resta: 1
sign: 0, exp: 01111, mantisa: 1101001000, is_resta: 0
.4 (g=0,r=1,s=1)  op=10  a=0011110100110011  b=0011110110011010  => y=0011111101001000 (hex=3f48)  MISMATCH
m1: 0000000001, m2: 0000000001
m1: 0000000001, m2: 0000000001
m1: 10000000001, m2: 10000000001, result: 0100000000100000000001
sign: 0, exp: 01111, mantisa: 0000000000, is_resta: 1
sign: 0, exp: 10000, mantisa: 0000000001, is_resta: 0
sign: 0, exp: 01111, mantisa: 0000000010, is_resta: 0
equeño*(pequÿño)  op=10  a=0011110000000001  b=0011110000000001  => y=0011110000000010 (hex=3c02)        OK
m1: 1110000000, m2: 1110000000
m1: 1110000000, m2: 1110000000
m1: 11110000000, m2: 11110000000, result: 1110000100000000000000
sign: 0, exp: 10000, mantisa: 0110000000, is_resta: 0
sign: 0, exp: 10000, mantisa: 1100001000, is_resta: 0
* 1.875 (exacto)  op=10  a=0011111110000000  b=0011111110000000  => y=0100001100001000 (hex=4308)        OK
m1: 0001000000, m2: 0001000000
m1: 0001000000, m2: 0001000000
m1: 10001000000, m2: 10001000000, result: 0100100001000000000000
sign: 0, exp: 10000, mantisa: 0001000000, is_resta: 0
sign: 0, exp: 01111, mantisa: 0010000100, is_resta: 0
 1.0625 * 1.0625  op=10  a=0011110001000000  b=0011110001000000  => y=0011110010000100 (hex=3c84)  MISMATCH
m1: 1111111111, m2: 0000000000
m1: 1111111111, m2: 0000000000
m1: 11111111111, m2: 10000000000, result: 0111111111110000000000
sign: 1, exp: 00110, mantisa: 0000000000, is_resta: 1
sign: 0, exp: 10000, mantisa: 1111111111, is_resta: 0
sign: 0, exp: 10000, mantisa: 1111111111, is_resta: 0
UL (2-ulp) * 2.0  op=10  a=0011111111111111  b=0100000000000000  => y=0100001111111111 (hex=43ff)        OK
m1: 0000000001, m2: 0000000001
m1: 0000000001, m2: 0000000001
m1: 10000000001, m2: 10000000001, result: 0100000000100000000001
sign: 0, exp: 01111, mantisa: 0000000000, is_resta: 1
sign: 0, exp: 10000, mantisa: 0000000001, is_resta: 0
sign: 0, exp: 01111, mantisa: 0000000010, is_resta: 0
UL minimo*minimo  op=10  a=0011110000000001  b=0011110000000001  => y=0011110000000010 (hex=3c02)        OK
m1: 0101010101, m2: 0101010101
m1: 0101010101, m2: 0101010101
m1: 10101010101, m2: 10101010101, result: 0111000110111000111001
sign: 0, exp: 10000, mantisa: 0101010101, is_resta: 0
sign: 0, exp: 01111, mantisa: 1100011100, is_resta: 0
n_alt*patron_alt  op=10  a=0011110101010101  b=0011110101010101  => y=0011111100011100 (hex=3f1c)        OK
m1: 1110011010, m2: 0001100110
m1: 1110011010, m2: 0001100110
m1: 11110011010, m2: 10001100110, result: 1000010110111101011100
sign: 0, exp: 10000, mantisa: 0000000000, is_resta: 0
sign: 0, exp: 01110, mantisa: 0110011000, is_resta: 1
sign: 0, exp: 10000, mantisa: 0000101110, is_resta: 0
   MUL 1.9 * 1.1  op=10  a=0011111110011010  b=0011110001100110  => y=0100000000101110 (hex=402e)  MISMATCH
   MUL 1.9 * 1.1  op=10  a=0011111110011010  b=0011110001100110  => y=0100000000101110 (hex=402e)  MISMATCH
m1: 0000000000, m2: 0000000000
m1: 0000000000, m2: 0000000000
m1: 10000000000, m2: 10000000000, result: 0100000000000000000000
sign: 0, exp: 10000, mantisa: 0000000000, is_resta: 0
sign: 0, exp: 01111, mantisa: 0000000000, is_resta: 1
sign: 0, exp: 01111, mantisa: 0000000000, is_resta: 0
 1.0 * 1.0 = 1.0  op=10  a=0011110000000000  b=0011110000000000  => y=0011110000000000 (hex=3c00)        OK
sign: 0, exp: 01111, mantisa: 0000000000, is_resta: 0
sign: 0, exp: 01101, mantisa: 0000000000, is_resta: 0
sign: 0, exp: 01110, mantisa: 0000000000, is_resta: 1
0.5 * 0.5 = 0.25  op=10  a=0011100000000000  b=0011100000000000  => y=0011010000000000 (hex=3400)        OK
m1: 1000000000, m2: 1000000000
m1: 1000000000, m2: 1000000000
m1: 11000000000, m2: 11000000000, result: 1001000000000000000000
sign: 0, exp: 10000, mantisa: 0000000000, is_resta: 0
sign: 0, exp: 10000, mantisa: 0010000000, is_resta: 0
sign: 0, exp: 01111, mantisa: 0000000000, is_resta: 1
1.5 * 1.5 = 2.25  op=10  a=0011111000000000  b=0011111000000000  => y=0100000010000000 (hex=4080)        OK
m1: 1000000000, m2: 0000000000
m1: 1000000000, m2: 0100000000
m1: 11000000000, m2: 10000000000, result: 0110000000000000000000
sign: 0, ex